{
  "chart.rank.warn": "過去24時間のスコア",
  "composer.animate.alpha": "Alpha",
  "composer.animate.move": "Movement",
  "composer.animate.mx": "Move By X",
  "composer.animate.my": "Move By Y",
  "composer.animate.rx": "Rotate By X",
  "composer.animate.ry": "Rotate By Y",
  "composer.animate.rz": "Rotate By Z",
  "composer.animate.scale": "Scale",
  "composer.animate.sh": "Height",
  "composer.animate.size": "Size",
  "composer.animate.sw": "Width",
  "composer.animate.sx": "Scale By Width",
  "composer.animate.sy": "Scale By Height",
  "composer.dialog.del": "このモジュールを削除してもよろしいですか？",
  "composer.dialog.export": "スキンパッケージ（MSP）のエクスポート",
  "composer.dialog.filter": "フィルターを選択",
  "composer.dialog.holder": "プレースホルダーを選択してください",
  "composer.dialog.import": "リソースパッケージのインポート",
  "composer.dialog.import.ok": "リソースパッケージが正常にインポートされました！",
  "composer.dialog.merge": "Merge From...",
  "composer.dialog.pause": "スキンに Pause がありません。続行してもよろしいですか？",
  "composer.dialog.res": "内部画像を選択してください",
  "composer.ele.acc": "精度",
  "composer.ele.bar": "Beat Bar",
  "composer.ele.bg": "プレイフィールドの背景",
  "composer.ele.catcher": "Catcher",
  "composer.ele.col": "単色画像",
  "composer.ele.combo": "コンボ",
  "composer.ele.cover": "レーンカバー",
  "composer.ele.cus": "カスタム",
  "composer.ele.drum": "Drum",
  "composer.ele.fast": "Fast / Slow",
  "composer.ele.frame": "画像フレーム",
  "composer.ele.hit": "ヒットエフェクト",
  "composer.ele.hold": "Hold",
  "composer.ele.hp": "HPゲージ",
  "composer.ele.hp1": "マスク画像",
  "composer.ele.hp1.tip": "マスク付きの単一画像",
  "composer.ele.img": "画像",
  "composer.ele.judge": "判定",
  "composer.ele.line": "Note Line",
  "composer.ele.meta": "譜面情報",
  "composer.ele.mp": "リアルタイムランキング",
  "composer.ele.note": "ノート",
  "composer.ele.num": "ダイナミックな数値",
  "composer.ele.num.tip": "画像を数字のフォントとして使用する",
  "composer.ele.pause": "ポーズボタン",
  "composer.ele.press": "プレスエフェクト",
  "composer.ele.prog": "進捗",
  "composer.ele.score": "スコア",
  "composer.ele.script": "スクリプト",
  "composer.ele.script.tip": "ゲーム内のモジュール・プロパティを動的に制御する",
  "composer.ele.skip": "スキップ",
  "composer.ele.text": "テキスト",
  "composer.ele.text.tip": "テキスト、ダイナミックテキスト",
  "composer.ele.value": "スクリプト変数",
  "composer.ele.video": "Video",
  "composer.ele.watch": "ウォッチステータス",
  "composer.err.avail": "スキンコンポーザーはこのモードでは利用できません :(",
  "composer.err.conflict": "既存の設定と競合しています",
  "composer.err.follow": "このオプションは、PlayFieldレイヤー上のモジュールにのみ適用されます",
  "composer.err.frame": "ファイル名が「prefix-number」の形式に合致していません",
  "composer.err.frame.2": "一致するシーケンス画像が見つかりません",
  "composer.err.frame.3": "有効なフレーム数を入力してください",
  "composer.err.jpg": "1MB 未満の画像ファイルを選択してください",
  "composer.err.name": "スキン名を入力してください",
  "composer.err.number": "0から9の数字の画像が必要です",
  "composer.err.test.1": "テストリソースの準備に失敗しました",
  "composer.err.test.2": "このスキンに対応する譜面がありません",
  "composer.err.video": "mp4形式をサポートしています",
  "composer.err.wronglayer": "このレイヤーにはモジュールを配置できません",
  "composer.flag.eq": "等しい（=）",
  "composer.flag.large": "より大きい（>）",
  "composer.flag.less": "より小さい（<）",
  "composer.flag.neq": "等しくない（!=）",
  "composer.flag.occur": "発生",
  "composer.info.cover": "カバー画像",
  "composer.info.creator": "作成者",
  "composer.info.desc": "説明",
  "composer.info.hash": "Checksum",
  "composer.info.judge": "判定ラインの位置",
  "composer.info.judgey": "Judge Height",
  "composer.info.lock": "設定をロック",
  "composer.info.lock.tip": "プレイヤーはゲーム内で設定を変更することはできません",
  "composer.info.name": "スキン名",
  "composer.info.path": "ローカルパス",
  "composer.label.addi": "加算",
  "composer.label.alpha": "不透明度",
  "composer.label.anchor": "アンカー",
  "composer.label.ani": "Animation",
  "composer.label.ani.1": "Type",
  "composer.label.ani.2": "Time Range",
  "composer.label.ani.3": "Change Range",
  "composer.label.ani.6": "Easing",
  "composer.label.ani.ea.1": "Ease In",
  "composer.label.ani.ea.2": "Ease Out",
  "composer.label.ani.ea.no": "Normal",
  "composer.label.ani.re": "Repeat",
  "composer.label.ani.re.1": "One Way",
  "composer.label.ani.re.2": "Round",
  "composer.label.ani.re.de": "Repeat Delay",
  "composer.label.basic": "基本設定",
  "composer.label.cnt": "内容",
  "composer.label.coexist": "共存を有効化",
  "composer.label.coexist.tip": "同時に発生するエフェクトが共存できるようにする",
  "composer.label.color": "カラー",
  "composer.label.count": "フレーム数",
  "composer.label.def": "デフォルトモジュール",
  "composer.label.dynnum": "数値設定",
  "composer.label.ele": "モジュールメタデータ",
  "composer.label.fill": "左から塗りつぶす",
  "composer.label.filter": "フィルター",
  "composer.label.follow": "ノートのアンカーに合わせる",
  "composer.label.font": "フォント",
  "composer.label.fps": "フレームレート",
  "composer.label.free": "Free Mode",
  "composer.label.fx": "水平方向に反転",
  "composer.label.fy": "垂直方向に反転",
  "composer.label.h": "高さ",
  "composer.label.hide": "再生終了時に非表示にする",
  "composer.label.hidedef": "デフォルトモジュールを非表示にする",
  "composer.label.img": "画像",
  "composer.label.img.tip": "シーケンスの最初の画像を選択してください",
  "composer.label.imgset": "画像設定",
  "composer.label.info": "スキン情報",
  "composer.label.layer": "レイヤー",
  "composer.label.loop": "アニメーションをループする",
  "composer.label.mod": "スキンモジュール",
  "composer.label.notescale": "ノートスケール",
  "composer.label.option": "(任意)",
  "composer.label.order": "オーダー/Zインデックス",
  "composer.label.pad": "パディング",
  "composer.label.pivot": "ピボット",
  "composer.label.pos": "位置",
  "composer.label.posdelta": "オフセット",
  "composer.label.preview": "プレビュー",
  "composer.label.preview.e": "終了",
  "composer.label.preview.s": "開始",
  "composer.label.req": "条件",
  "composer.label.req.1": "ソースを選択してください",
  "composer.label.req.2": "比較方法を選択してください",
  "composer.label.req.3": "値を選択してください",
  "composer.label.res": "リソース",
  "composer.label.res.add": "Overlap",
  "composer.label.res.arr.l": "左フリック",
  "composer.label.res.arr.r": "右フリック",
  "composer.label.res.arr.u": "上フリック",
  "composer.label.res.b": "Body",
  "composer.label.res.ball.l": "Large Balloon",
  "composer.label.res.ball.s": "Small Balloon",
  "composer.label.res.h": "Head",
  "composer.label.res.h.add": "Head Overlap",
  "composer.label.res.r": "Rear",
  "composer.label.res.r.add": "Rear Overlap",
  "composer.label.res.same": "同時押し",
  "composer.label.rotate": "回転",
  "composer.label.sim": "プレビュー画像を非表示にする",
  "composer.label.size": "サイズ",
  "composer.label.slice": "トリミング(左/上/右/下)",
  "composer.label.temp": "プレビュー値",
  "composer.label.text": "テキスト設定",
  "composer.label.trigger": "トリガー",
  "composer.label.type": "モジュールタイプ",
  "composer.label.usage": "使用法を選択してください",
  "composer.label.value": "変数値",
  "composer.label.value.bool": "Bool値",
  "composer.label.video": "ビデオ設定",
  "composer.label.video.black": "黒いピクセルを除去する",
  "composer.label.video.loop": "ループ再生",
  "composer.label.video.spd": "再生速度",
  "composer.label.w": "幅",
  "composer.layer.an": "ノートの上",
  "composer.layer.bg": "背景",
  "composer.layer.pf": "プレイフィールド",
  "composer.layer.tp": "トップ",
  "composer.res.ava": "ユーザーアバター",
  "composer.res.cover": "カバー画像",
  "composer.source.acc": "精度",
  "composer.source.arrow": "フリック方向",
  "composer.source.arrow.1": "左",
  "composer.source.arrow.2": "上",
  "composer.source.arrow.3": "右",
  "composer.source.art": "アーティスト名",
  "composer.source.arto": "アーティスト名(オリジナル)",
  "composer.source.best": "Best 判定数",
  "composer.source.chorus": "Chorus Part",
  "composer.source.chorus.off": "Chorus Inactive",
  "composer.source.chorus.on": "Chorus Active",
  "composer.source.cool": "Cool 判定数",
  "composer.source.creator": "譜面制作者",
  "composer.source.denom": "Subdivision",
  "composer.source.fast": "Fast 判定",
  "composer.source.good": "Good 判定数",
  "composer.source.h": "画面の高さ",
  "composer.source.hp": "HP値",
  "composer.source.judge": "判定結果",
  "composer.source.judge.1": "Hold ボーナス",
  "composer.source.judge.2": "Flick ボーナス",
  "composer.source.judge.3": "Rain ボーナス",
  "composer.source.judge.4": "Wipe ボーナス",
  "composer.source.judge.5": "Taiko Big Best",
  "composer.source.judge.6": "Taiko Big Cool",
  "composer.source.judge.7": "Taiko Renda",
  "composer.source.judge.8": "Balloon Hit",
  "composer.source.judge.9": "Balloon Pop",
  "composer.source.kps.cur": "リアルタイム KPS",
  "composer.source.kps.max": "最大 KPS",
  "composer.source.kps.total": "総入力数",
  "composer.source.level": "判定の種類",
  "composer.source.maxcb": "最大コンボ数",
  "composer.source.miss": "Miss 判定数",
  "composer.source.mod": "Modの種類",
  "composer.source.note": "ノートに対するアクション",
  "composer.source.note.1": "ヒット",
  "composer.source.note.2": "ホールド",
  "composer.source.note.3": "フリック",
  "composer.source.note.4": "リリース",
  "composer.source.notetype": "ノートの種類",
  "composer.source.nps.cur": "リアルタイム NPS",
  "composer.source.nps.max": "最大 NPS",
  "composer.source.nps.total": "ヒット数の合計",
  "composer.source.nw": "Note Width",
  "composer.source.plat": "プラットフォーム",
  "composer.source.play": "プレイヤーの種類",
  "composer.source.play.1": "プレイヤー",
  "composer.source.play.2": "オート",
  "composer.source.play.3": "リプレイ",
  "composer.source.player": "プレイヤー名",
  "composer.source.press": "押下状態",
  "composer.source.press.1": "押された",
  "composer.source.press.2": "移動した",
  "composer.source.press.3": "離された",
  "composer.source.prog": "進捗状況(%)",
  "composer.source.rat": "画面比率(幅/高さ)",
  "composer.source.score": "スコア",
  "composer.source.slow": "Slow 判定",
  "composer.source.taiko.hit": "Renda Hit",
  "composer.source.taiko.remain": "Balloon Remain",
  "composer.source.time": "曲の時間",
  "composer.source.title": "曲のタイトル",
  "composer.source.titleo": "曲のタイトル(オリジナル)",
  "composer.source.total": "合計時間",
  "composer.source.uid": "プレイヤーID",
  "composer.source.ver": "譜面バージョン",
  "composer.source.w": "画面の幅",
  "composer.source.x": "ノートの水平位置",
  "config.audio.type": "音声種類を選択",
  "config.audio.type.tip": "音声が遅れる場合のみこれを変更します",
  "config.autosound": "自動ヒット音声",
  "config.bind.tip": "設定からキーバインディングにもアクセスできます",
  "config.exp.cube6k": "6K を Cube としてプレイ",
  "config.hitsound.prefix": "Usage/Prefix",
  "config.hitsound.tip": "Select audio file (wav,mp3,ogg) with usage prefix",
  "config.host": "公式",
  "config.label.back": "候補のホスト",
  "config.label.border": "ボーダレスウィンドウ",
  "config.label.hide": "Hide Play Status",
  "config.label.hit": "Hit Sound",
  "config.label.marlo": "看板娘",
  "config.marlo.buy": "購入",
  "config.marlo.buy.fail": "購入失敗",
  "config.marlo.res": "購入の復元",
  "config.marlo.res.fail": "復元失敗",
  "config.marlo.res.succ": "復元成功",
  "config.marlo.use": "使用",
  "config.newver": "新しいバージョンを更新しました, クリックして変更履歴を読む",
  "config.play": "Play - Pause - 設定からオフセットを変更",
  "config.prelude": "前奏をスキップ",
  "config.rank.type": "ランキングタイプ",
  "config.rank.type.1": "デフォルト",
  "config.rank.type.2": "スピード修正なし",
  "config.vol.hit": "ヒット音量",
  "dialog.chart.choice": "Choice Token（利用可能な場合）をお好みでご使用しますか?",
  "dialog.chart.choice.1": "推しポイント",
  "dialog.chart.choice.2": "Recommend",
  "dialog.chart.store": "ストアで探す",
  "dialog.result.back": "成績は現在アップロード中であり、退出するとアップロードが中断されます",
  "dialog.skin.use": "Would you like to enable the skin?",
  "dialog.store.host": "Malodyは公式サーバーとプライベートストアサーバーの両方をサポートしています。オンライン譜面にアクセスする前にストアホストを選択してください",
  "dialog.title.pre": "Preview",
  "dialog.watch.req": "ライブ配信リクエストを受け取りました。開始しますか？",
  "dialog.watch.req.send": "このプレイヤーはリクエストを受け取りますので、少々お待ちいただき、その後再度お試しください",
  "edit.check.rule.1": "タイトルが必要",
  "edit.check.rule.10": "対応していない音声ビットレート",
  "edit.check.rule.11": "ノートの重複",
  "edit.check.rule.2": "アーティストが必要",
  "edit.check.rule.3": "メインBPMが必要",
  "edit.check.rule.4": "バージョンが必要",
  "edit.check.rule.5": "不適切なバージョン名",
  "edit.check.rule.6": "最低60秒と60ノートが必要",
  "edit.check.rule.7": "MP3は使用できません",
  "edit.check.rule.8": "偽のOggは使用できません",
  "edit.check.rule.9": "画像ファイルサイズは2MB未満である必要があります",
  "edit.check.skip": "重複チェックをスキップ",
  "edit.check.skip.tip": "重複チェックは誤って配置されたノートを見つけるのに役立ち、予測できないプレイ動作を引き起こす可能性があります。チェックをスキップした結果はすべて譜面作成者の責任です。",
  "edit.config.wx": "水平スケール",
  "edit.config.wx.tip": "効果を反映するにはエディタを再起動してください",
  "edit.dialog.active": "How?",
  "edit.dialog.addplug": "プラグインをインポート",
  "edit.dialog.group": "グループ番号を設定",
  "edit.dialog.reload": "プラグインを再読み込み",
  "edit.err.fatal": "このファイルを編集できません",
  "edit.err.init": "この譜面エディタを作成できませんでした。バグを報告してください。",
  "edit.err.toolong": "メタデータが長すぎるため保存できません",
  "edit.err.ver": "この譜面は、MalodyVの上位バージョンによって作成されています",
  "edit.info.bg": "Background File",
  "edit.info.skin": "Bundled Skin File",
  "edit.info.skin.err": "Can not find info.asm in chart folder",
  "edit.tip.bpm": "Timing Manage",
  "edit.tip.divful": "1/7 ~ 1/32 の分割数を使用できるようにする",
  "edit.tip.effect": "Effect Manage",
  "edit.tip.free": "Creator Note",
  "edit.tip.func": "Basic Tools",
  "edit.tip.group": "Set Group",
  "edit.tip.groups": "Group Manage",
  "edit.tip.manage": "Manage Plugins",
  "edit.tip.open": "開く",
  "edit.tip.play": "再生",
  "edit.tip.ref": "Reference Chart",
  "edit.tip.save": "保存",
  "edit.tip.saveas": "Save as .mc(Beta)",
  "edit.tip.tool": "Basic Note Tools",
  "import.err.msz": "レガシースキンはMalodyVではサポートされていません",
  "import.error": "失敗しました",
  "import.file": "受信したファイル:",
  "import.finish": "完了",
  "import.init": "開始を待機中",
  "import.noip": "IPアドレスがありません（WIFI/LANに接続されていません）",
  "import.run": "実行中",
  "import.start": "開始",
  "import.title": "共有サーバー",
  "judge.config.catch": "Catch Drop Speed",
  "judge.config.copilot": "Judge Copilot(C)",
  "lobby.create.host": "ホストのみ",
  "lobby.create.num": "プレイヤー上限",
  "play.config.adv": "高度な設定",
  "play.config.coff": "Hit Offset(This chart)",
  "play.config.cube.init": "ノート生成時のアニメーションを有効化",
  "play.config.graphic.tip": "意味が分からない場合は0のままにしてください",
  "play.config.light": "ヒットライトの透明度",
  "play.config.offfix": "Calibrate Offset",
  "play.config.offset": "Show Realtime Offset",
  "play.config.scale.tip": "Restart play to take effect",
  "play.config.value": "Skin Variables",
  "play.err.1": "This chart is created by a higher version of Malody, please upgrade to the latest version first!",
  "play.err.2": "この譜面には特別なスキンが必要です。作成者にお手伝いいただけますように",
  "play.taiko.beta": "Taiko モードはベータテスト中です",
  "profile.stat.comp": "Making Skin",
  "profile.stat.edit": "Editing",
  "profile.stat.idle": "Idle",
  "profile.stat.off": "Offline",
  "profile.stat.play": "Playing",
  "profile.stat.wait": "Waiting",
  "result.tip.mm": "MM値：",
  "result.tip.submit": "スコアをアップロード中...",
  "skin.config.always": "Always use Skin",
  "skin.err.1": "ゲームが予期せぬエラーに遭遇し、終了しました。互換性を確保するために現在のスキン設定を確認し、再度試してください",
  "skin.local.create": "スキンコンポーザー",
  "skin.local.free": "You are using an advanced skin created by other players, which controls note, judgement and scoring. If you need any help, please contact the skin creator",
  "skin.local.mismatch": "このスキンは上位バージョン向けに作成されたものです。現在のバージョンと互換性がない可能性があります。",
  "skin.local.warn": "他のプレイヤーによって作成されたスキンはパフォーマンスの低下やクラッシュ、その他の問題を引き起こす可能性があります。",
  "skin.play.deny": "Can not play with this Skin",
  "store.nav.cho": "Choice",
  "store.nav.evt": "Event",
  "store.nav.fri": "Friends",
  "store.nav.pro": "Promote",
  "store.nav.recom": "Recommend",
  "top.tip.collect": "コレクション",
  "top.tip.dl": "ダウンロード",
  "top.tip.import": "インポート",
  "top.tip.logout": "ログアウト",
  "top.tip.mod": "Mod",
  "top.tip.mode": "モード",
  "top.tip.search": "検索",
  "top.tip.selectok": "完了",
  "top.tip.setting": "設定",
  "top.tip.sort": "並び替え"
}